{
  "format": "web-program-pre1",
  "manifest": [
    {
      "path": "5ef74debdf962b32efd074b043c7ff1f83f819b1.js",
      "where": "client",
      "type": "js",
      "cacheable": true,
      "url": "/5ef74debdf962b32efd074b043c7ff1f83f819b1.js?meteor_js_resource=true",
      "size": 4306489,
      "hash": "5ef74debdf962b32efd074b043c7ff1f83f819b1",
      "sri": "phpE45IekXzi2ZCA7Lc4buyj0JWIzo65LWBClDBB55O4LyBr25gkKuSmYbozwj86aX2sGx7gfv0viumgLKoRpA=="
    },
    {
      "path": "5ef74debdf962b32efd074b043c7ff1f83f819b1.stats.json",
      "where": "client",
      "type": "json",
      "cacheable": true,
      "url": "/5ef74debdf962b32efd074b043c7ff1f83f819b1.stats.json?meteor_js_resource=true",
      "size": 92684,
      "hash": "678d46c2b0a6da2715e3ad839696b3e8e8614431",
      "sri": "XaQNIOzb6y6L4+FxTj3MujFMjtGxQRGtGUisD2ZTfug3ck+5oyxA6iOiLzA0xZWZrbByDRgyt5jfPRT0tKzRlA=="
    },
    {
      "path": "dynamic/node_modules/@steedos/form-builder/dist/form-builder.min.js",
      "where": "client",
      "type": "dynamic js",
      "cacheable": true,
      "url": "/dynamic/node_modules/@steedos/form-builder/dist/form-builder.min.js?hash=40d4cb9d7a5b3ef07831a62eafaea636b1891b83",
      "size": 146085,
      "hash": "40d4cb9d7a5b3ef07831a62eafaea636b1891b83",
      "sri": "dnbW1q48j3KtzpHXDViMERVHFCPgoNyDxNZD5+hzluyQ5nHg9uvZq/Eo/FNenaG0bCybOWM+61X4wq3ayULJOA=="
    },
    {
      "path": "dynamic/client/main.html",
      "where": "client",
      "type": "dynamic js",
      "cacheable": true,
      "url": "/dynamic/client/main.html?hash=3f15678a7f2d6500376c8fb597cc7f80f5062bcb",
      "size": 65,
      "hash": "3f15678a7f2d6500376c8fb597cc7f80f5062bcb",
      "sri": "QHoD3eBWtoB0O5iCxYBCVvUIiHJ/4DDM/ojXZdmSFEEM+8kcGAQ3eaB2wpOenTLldZ9XhfIGTBaNisipdwarxA=="
    },
    {
      "path": "106b9e345091b56401f90f1c9096385cd0758cb4.css",
      "where": "client",
      "type": "css",
      "cacheable": true,
      "url": "/106b9e345091b56401f90f1c9096385cd0758cb4.css?meteor_css_resource=true",
      "size": 894349,
      "hash": "106b9e345091b56401f90f1c9096385cd0758cb4",
      "sri": "pk+cQO9xVuqjnJvrW3Y5nAoh8aqkjaT+B7Cmgn1cLV5IkxWp46yQebX+LY2ugkUdSQvJd6ayGUbFVC1nOQr7Uw=="
    },
    {
      "path": "packages/aldeed_tabular/images/sort_asc.png",
      "where": "client",
      "type": "asset",
      "cacheable": false,
      "url": "/packages/aldeed_tabular/images/sort_asc.png",
      "size": 1118,
      "hash": "316902f252ed6c1df0f2e249b595947ea614561f",
      "sri": "Nuoh8B6BuGHNfEMcEHBZAoIr9Hqg328mnKZu8sn85o8HP3yCGm3WWL1+6HnrnfdsohuJ7lisX5qag8ImWgdKmw=="
    },
    {
      "path": "packages/aldeed_tabular/images/sort_asc_disabled.png",
      "where": "client",
      "type": "asset",
      "cacheable": false,
      "url": "/packages/aldeed_tabular/images/sort_asc_disabled.png",
      "size": 2916,
      "hash": "d3b36e7e840073d72c41234d8ea9458f6fbfdd89",
      "sri": "Np57d/2rfIV4VBtl977miwbZdQVVtfe7JCeZAAQNAJBVm96NeBs2yHIos6KTPsRyPfn72bR2wQ+Ie93VbCyB5w=="
    },
    {
      "path": "packages/aldeed_tabular/images/sort_both.png",
      "where": "client",
      "type": "asset",
      "cacheable": false,
      "url": "/packages/aldeed_tabular/images/sort_both.png",
      "size": 1136,
      "hash": "ab54233bd2b1c940c4dc31fb0c61153df0688cd3",
      "sri": "kwpWVgKlaCLJoySRqvgvt4GPbeqSqx+eBIKkOT4LOxt5w0uhM3z2hK/QtVVRzk/p7XN3ljW0PlvgO/uCB+G+KQ=="
    },
    {
      "path": "packages/aldeed_tabular/images/sort_desc.png",
      "where": "client",
      "type": "asset",
      "cacheable": false,
      "url": "/packages/aldeed_tabular/images/sort_desc.png",
      "size": 1127,
      "hash": "e0d717f0b79a6fa7648a2f7803db6883482d94d3",
      "sri": "WcMO6Jpo1AHAjz5kpNECZzheBFC1I2aUzGoYr+UTdKg/gtLWrw48Z2hxpzvt2V38F8G/4z7CgVxRxES189aUMg=="
    },
    {
      "path": "packages/aldeed_tabular/images/sort_desc_disabled.png",
      "where": "client",
      "type": "asset",
      "cacheable": false,
      "url": "/packages/aldeed_tabular/images/sort_desc_disabled.png",
      "size": 1045,
      "hash": "d78cd75eda77f65256044e0c16554a48901fe46f",
      "sri": "wWNhEtCCD5xwQdWjTJJtJh2jA5jTW7zZ6N8rKBufbZ0n5f/i+dDSZFVafcMEuBGi+1jFnjINgbsQcozynkBlTA=="
    },
    {
      "path": "packages/steedos_autoform-bs-minicolors/public/jquery.minicolors.png",
      "where": "client",
      "type": "asset",
      "cacheable": false,
      "url": "/packages/steedos_autoform-bs-minicolors/public/jquery.minicolors.png",
      "size": 77459,
      "hash": "8dd0f6b7280388adeb4ae40e366006f389932bb5",
      "sri": "Jju4R/SAE/OhsyJ3TBPau2rp1t7Eqz2RBotaWqvoBAr1aDVBdUTjGGUTY4e6beqzropS5TZknwJ3ZTS6d5pqiw=="
    },
    {
      "path": "packages/fortawesome_fontawesome/upstream/fonts/fontawesome-webfont.eot",
      "where": "client",
      "type": "asset",
      "cacheable": false,
      "url": "/packages/fortawesome_fontawesome/upstream/fonts/fontawesome-webfont.eot",
      "size": 70807,
      "hash": "f76d01027f33824dec0e13b2cfe62253583b423f",
      "sri": "R/GSgvGc/HpAoxxq9CjxAMcBEWeFi0a0FVVv2bZdSNong9wisQGmqJ2VsFy87mJWUsh9QhqD1ArHSCwrCz2Gog=="
    },
    {
      "path": "packages/fortawesome_fontawesome/upstream/fonts/fontawesome-webfont.svg",
      "where": "client",
      "type": "asset",
      "cacheable": false,
      "url": "/packages/fortawesome_fontawesome/upstream/fonts/fontawesome-webfont.svg",
      "size": 365616,
      "hash": "decdb50877d8f8aa0fdad44009c8185461e49221",
      "sri": "4Tr+zr8cRRnzJaWJ0OyVPEtOlBjcJZ6YSWKC6n7ps8W4oI8YBNhA8JYS0WST/YhtPZacLvp6XgLPnUdkAVpFQQ=="
    },
    {
      "path": "packages/fortawesome_fontawesome/upstream/fonts/fontawesome-webfont.ttf",
      "where": "client",
      "type": "asset",
      "cacheable": false,
      "url": "/packages/fortawesome_fontawesome/upstream/fonts/fontawesome-webfont.ttf",
      "size": 142072,
      "hash": "8c4be7d209acede6300afa29c71b06f2530b2503",
      "sri": "lKaTqyzjxZ96HTW0vMD9CDItrSTOhCAwYM7Orz2sRMTChBPCjc2rNdKJ8w+OKCI6Q8Ect9XppW2FHraX/5ubaw=="
    },
    {
      "path": "packages/fortawesome_fontawesome/upstream/fonts/fontawesome-webfont.woff",
      "where": "client",
      "type": "asset",
      "cacheable": false,
      "url": "/packages/fortawesome_fontawesome/upstream/fonts/fontawesome-webfont.woff",
      "size": 83588,
      "hash": "adfb93a34d2c667d8fcac325a27d3ee96de4d9b1",
      "sri": "C5vayfmcyfnpUDkhP2wmWjn1P4gHkgFbQ7IkZh8lPanS93o2g/r9aj+AmTOChrzBiYoskTQiBXrGdyiToMihHA=="
    },
    {
      "path": "packages/fortawesome_fontawesome/upstream/fonts/fontawesome-webfont.woff2",
      "where": "client",
      "type": "asset",
      "cacheable": false,
      "url": "/packages/fortawesome_fontawesome/upstream/fonts/fontawesome-webfont.woff2",
      "size": 66624,
      "hash": "8a50281ea8625d7bad32c2c367cbdfdcf9a3eed0",
      "sri": "FyIvApV7MzWEnj/id7F8IcSq8Mds09oBpMo5wDVilpXSlkWROGW3jglwZkkvnO5WGK9RWVYDY9JyO+18O5zyqA=="
    },
    {
      "path": "packages/fortawesome_fontawesome/upstream/fonts/FontAwesome.otf",
      "where": "client",
      "type": "asset",
      "cacheable": false,
      "url": "/packages/fortawesome_fontawesome/upstream/fonts/FontAwesome.otf",
      "size": 109688,
      "hash": "1c95d0ba075a389137b185d2dc9aaa813f388e5e",
      "sri": "TEZXEFn05Mvhev0aBG7yHxUfB3ZiStBKEItnIlzCRwMOCfASp+2ROoQQUMy5QmtIOGYDANYFMoIy3Kb0ikrmwQ=="
    },
    {
      "path": "packages/steedos_autoform-lookup/img/loading.gif",
      "where": "client",
      "type": "asset",
      "cacheable": false,
      "url": "/packages/steedos_autoform-lookup/img/loading.gif",
      "size": 1456,
      "hash": "7a341dbfcb18bcc7242af96f10a3544288afedc9",
      "sri": "MkNG30R5o6Vzhrazl/APMWk6Ql65itud5pDYbnIVOjv2NAJOuY8i/eZWauSmOI4WZlFN1NKojCxKG2fM03dXwA=="
    },
    {
      "path": "packages/vazco_universe-selectize/img/loading.gif",
      "where": "client",
      "type": "asset",
      "cacheable": false,
      "url": "/packages/vazco_universe-selectize/img/loading.gif",
      "size": 1456,
      "hash": "7a341dbfcb18bcc7242af96f10a3544288afedc9",
      "sri": "MkNG30R5o6Vzhrazl/APMWk6Ql65itud5pDYbnIVOjv2NAJOuY8i/eZWauSmOI4WZlFN1NKojCxKG2fM03dXwA=="
    },
    {
      "path": "packages/twbs_bootstrap/dist/fonts/glyphicons-halflings-regular.eot",
      "where": "client",
      "type": "asset",
      "cacheable": false,
      "url": "/packages/twbs_bootstrap/dist/fonts/glyphicons-halflings-regular.eot",
      "size": 20127,
      "hash": "fdefb04bdd78ef36598d9c76678991896afd4681",
      "sri": "78kQyWufXFjqEahFd89grplVA7HuZwu359SkE7dAN2mSD4JgC1gfG9TuA9ccdsFSVfCXLtZq2WlIe1pAQ/RyxA=="
    },
    {
      "path": "packages/twbs_bootstrap/dist/fonts/glyphicons-halflings-regular.svg",
      "where": "client",
      "type": "asset",
      "cacheable": false,
      "url": "/packages/twbs_bootstrap/dist/fonts/glyphicons-halflings-regular.svg",
      "size": 108738,
      "hash": "714c8aa3ab61ae93c1e1efe8a2738e6f36508bde",
      "sri": "wud+qzJ68UaQl8MbwNr4IMBmsCIgWdj/Ds68qXS2K3U16W8fNWZDsrYnY6kk0EDkrJsgl+HeLCIiZBH96HI3Qw=="
    },
    {
      "path": "packages/twbs_bootstrap/dist/fonts/glyphicons-halflings-regular.ttf",
      "where": "client",
      "type": "asset",
      "cacheable": false,
      "url": "/packages/twbs_bootstrap/dist/fonts/glyphicons-halflings-regular.ttf",
      "size": 45404,
      "hash": "4fb413597d028e8b079c10dccad4a20590a42688",
      "sri": "KwZuBlBu8g1paY03zexVIXbvP2ShFRqZodAtctOc4SxP9hbcCKr7LMrqEu/XofRrcBUWpVnlaQxXo0sSduiCJg=="
    },
    {
      "path": "packages/twbs_bootstrap/dist/fonts/glyphicons-halflings-regular.woff",
      "where": "client",
      "type": "asset",
      "cacheable": false,
      "url": "/packages/twbs_bootstrap/dist/fonts/glyphicons-halflings-regular.woff",
      "size": 23424,
      "hash": "f96aefe5353b8560b49a55d4a311979c7e67068d",
      "sri": "9TZqslWv7+P+BhUOhQnndrVhj/UP4+D6jk1xXWRbHkTd860YXiHfGiduCLNwf1WGbLKoPS8yWlaIX8uOV6dKZw=="
    },
    {
      "path": "packages/twbs_bootstrap/dist/fonts/glyphicons-halflings-regular.woff2",
      "where": "client",
      "type": "asset",
      "cacheable": false,
      "url": "/packages/twbs_bootstrap/dist/fonts/glyphicons-halflings-regular.woff2",
      "size": 18028,
      "hash": "3e4284be2fe535fb57049c3994295baa0abbdb66",
      "sri": "OBGAT1bsPILwvvNd4KklDlRqHjV/tZ4nhPYQ1jj+w1Wie0gOP3liQ8Dj03Q74+rdqPkGTCtbSVd+FrfkDvzbgw=="
    },
    {
      "path": "packages/steedos_ionicons/fonts/ionicons.eot",
      "where": "client",
      "type": "asset",
      "cacheable": false,
      "url": "/packages/steedos_ionicons/fonts/ionicons.eot",
      "size": 121036,
      "hash": "5852c17be7c78b864b2713b513409769a8e182e5",
      "sri": "zJJCpo43A9kXaNsMCy6R5goXAoOuZ8hTBVJYC+UvvZyO1QKBpuSZdyHtKIKCfSc57fIPGih3ebTgoPQ/gKo7UA=="
    },
    {
      "path": "packages/steedos_ionicons/fonts/ionicons.svg",
      "where": "client",
      "type": "asset",
      "cacheable": false,
      "url": "/packages/steedos_ionicons/fonts/ionicons.svg",
      "size": 336515,
      "hash": "cb93bad0f3bb37a5d1ecf08a376f2785779e07ac",
      "sri": "x589U+8BpqAttlFZBvfD439cB19vAc+7edg0KzhJq/WAhLAExwC/J8csrp67ETf66lBi/5mQuQNOYHWEs2Sfrg=="
    },
    {
      "path": "packages/steedos_ionicons/fonts/ionicons.ttf",
      "where": "client",
      "type": "asset",
      "cacheable": false,
      "url": "/packages/steedos_ionicons/fonts/ionicons.ttf",
      "size": 188724,
      "hash": "423deb3215eba9473fca1e6b602b811d19219b06",
      "sri": "yRKaXcRVqAMhWO3RUzT4ioklNYxyswyCiGqrWW3U7n7wFsrosbKxuKDTCPH5oaF4uPxYT7DRfczBfMbIXrIYFA=="
    },
    {
      "path": "packages/steedos_ionicons/fonts/ionicons.woff",
      "where": "client",
      "type": "asset",
      "cacheable": false,
      "url": "/packages/steedos_ionicons/fonts/ionicons.woff",
      "size": 68060,
      "hash": "ff31f04cebbb9303d5d2f806aa9880c8055d2983",
      "sri": "md/DQwknUSxwcANdfvo6mqLBB8fWGjZ2rjRH/VNDQ7oPR8bH3Lg/GEf/4dTQf/LKLWHBRTLeUDarTnIN04CjcQ=="
    },
    {
      "path": "packages/steedos_jstree/jstree/32px.png",
      "where": "client",
      "type": "asset",
      "cacheable": false,
      "url": "/packages/steedos_jstree/jstree/32px.png",
      "size": 3121,
      "hash": "5769398ddf615f8f22697c1c5cf51bcfe60f3ff8",
      "sri": "vPlbb6vFD6pXh+Zu0BPkT/J9SYy+w4siQHpKK+RtCAyQHQrA7bzUL862lfcRtJUqcBcfBnaaOWkLVRdWLhPznw=="
    },
    {
      "path": "packages/steedos_jstree/jstree/40px.png",
      "where": "client",
      "type": "asset",
      "cacheable": false,
      "url": "/packages/steedos_jstree/jstree/40px.png",
      "size": 1880,
      "hash": "ae3887436dcbd084dde97aeb62e5e7ba0fc389da",
      "sri": "64O+whFicDsY+4/97nIhddhyUy1iPinV33rah7/JPf+8hvIutjTxKX9hdu6vVX7Cb6HM1muwMgvcTdPLF+t7vg=="
    },
    {
      "path": "packages/steedos_jstree/jstree/throbber.gif",
      "where": "client",
      "type": "asset",
      "cacheable": false,
      "url": "/packages/steedos_jstree/jstree/throbber.gif",
      "size": 1720,
      "hash": "3e704183183261ed4316e1deca8fe0d064c24c39",
      "sri": "PXW6rXgvLGkRAkl6HA1FOqcphvEtkt2bhzcVC4dBffhvefDJtJ1xJKUga46vVeGo0Ri1Jo9zImfa9JSYZDP31Q=="
    },
    {
      "path": "packages/steedos_formbuilder/formbuilder/languages/zh-CN.lang",
      "where": "client",
      "type": "asset",
      "cacheable": false,
      "url": "/packages/steedos_formbuilder/formbuilder/languages/zh-CN.lang",
      "size": 2439,
      "hash": "41c29095fb591655d64f6862170bca966f1a0938",
      "sri": "8LZx6iCUP2UhboPQOSgsmQZulwyOsprmS+IO6+XcEgQDv/IKad4JGZEfaklHdL3mHs3ZqCSm2a2QbIMxkWx7vg=="
    },
    {
      "path": "assets/icons/License-for-icons.txt",
      "where": "client",
      "type": "asset",
      "cacheable": false,
      "url": "/assets/icons/License-for-icons.txt",
      "size": 14384,
      "hash": "5d75f4079a7062147a0e2f5dc6bda46af23538d5",
      "sri": null
    },
    {
      "path": "assets/icons/README-dist.md",
      "where": "client",
      "type": "asset",
      "cacheable": false,
      "url": "/assets/icons/README-dist.md",
      "size": 307,
      "hash": "6058395918e612d9366a62cca85a28002624196c",
      "sri": null
    },
    {
      "path": "assets/icons/action-sprite/svg/symbols-rtl.svg",
      "where": "client",
      "type": "asset",
      "cacheable": false,
      "url": "/assets/icons/action-sprite/svg/symbols-rtl.svg",
      "size": 113398,
      "hash": "f0601895e3cf6ab784231b1b567d2800d2c52fbf",
      "sri": null
    },
    {
      "path": "assets/icons/action-sprite/svg/symbols.svg",
      "where": "client",
      "type": "asset",
      "cacheable": false,
      "url": "/assets/icons/action-sprite/svg/symbols.svg",
      "size": 113610,
      "hash": "398ad524ed07a2b862356ae374dbfff2d72c32dc",
      "sri": null
    },
    {
      "path": "assets/icons/custom-sprite/svg/symbols-rtl.svg",
      "where": "client",
      "type": "asset",
      "cacheable": false,
      "url": "/assets/icons/custom-sprite/svg/symbols-rtl.svg",
      "size": 68041,
      "hash": "5e7d11f09e91eb6f17acc6d186e24d78516b95c4",
      "sri": null
    },
    {
      "path": "assets/icons/custom-sprite/svg/symbols.svg",
      "where": "client",
      "type": "asset",
      "cacheable": false,
      "url": "/assets/icons/custom-sprite/svg/symbols.svg",
      "size": 68073,
      "hash": "77d533a4f9cbb543106b9263e5bc582a1b6270eb",
      "sri": null
    },
    {
      "path": "assets/icons/doctype-sprite/svg/symbols-rtl.svg",
      "where": "client",
      "type": "asset",
      "cacheable": false,
      "url": "/assets/icons/doctype-sprite/svg/symbols-rtl.svg",
      "size": 43708,
      "hash": "8330b26f76b030ec549b0d9c2cc394e25e1e7088",
      "sri": null
    },
    {
      "path": "assets/icons/doctype-sprite/svg/symbols.svg",
      "where": "client",
      "type": "asset",
      "cacheable": false,
      "url": "/assets/icons/doctype-sprite/svg/symbols.svg",
      "size": 44473,
      "hash": "bca8778929891ccd5d4f100c4562729c08756f5e",
      "sri": null
    },
    {
      "path": "assets/icons/standard-sprite/svg/symbols-rtl.svg",
      "where": "client",
      "type": "asset",
      "cacheable": false,
      "url": "/assets/icons/standard-sprite/svg/symbols-rtl.svg",
      "size": 371448,
      "hash": "ed000452b0865475800c3c3b5762c357142342c4",
      "sri": null
    },
    {
      "path": "assets/icons/standard-sprite/svg/symbols.svg",
      "where": "client",
      "type": "asset",
      "cacheable": false,
      "url": "/assets/icons/standard-sprite/svg/symbols.svg",
      "size": 370995,
      "hash": "965153cd5e11dde38a398c3b1732209637e272dd",
      "sri": null
    },
    {
      "path": "assets/icons/utility-sprite/svg/symbols-rtl.svg",
      "where": "client",
      "type": "asset",
      "cacheable": false,
      "url": "/assets/icons/utility-sprite/svg/symbols-rtl.svg",
      "size": 355004,
      "hash": "a2e3f488d7e3b14b95d956ed470d41ecb348add0",
      "sri": null
    },
    {
      "path": "assets/icons/utility-sprite/svg/symbols.svg",
      "where": "client",
      "type": "asset",
      "cacheable": false,
      "url": "/assets/icons/utility-sprite/svg/symbols.svg",
      "size": 355154,
      "hash": "df4d863fac9f645eb548908d358bcc1d7c0b5b7d",
      "sri": null
    },
    {
      "path": "head.html",
      "where": "internal",
      "type": "head",
      "hash": "4298f6754b8453e2ec0d94cf56ac280f998727e1"
    }
  ]
}